{
  "images" : [
    {
      "filename" : "B5431D83-5075-401F-8659-6A36E90FA55C.jpeg",
      "idiom" : "universal",
      "scale" : "1x"
    },
    {
      "filename" : "B5431D83-5075-401F-8659-6A36E90FA55C-1.jpeg",
      "idiom" : "universal",
      "scale" : "2x"
    },
    {
      "filename" : "B5431D83-5075-401F-8659-6A36E90FA55C-2.jpeg",
      "idiom" : "universal",
      "scale" : "3x"
    }
  ],
  "info" : {
    "author" : "xcode",
    "version" : 1
  }
}
